{
    "b733": [80, 400, 1200, 3900, 7670, 12280, 23930, 38710, 56440],
    "b734": [90, 440, 1340, 4390, 8650, 13870, 27090, 43870, 64020],
    "b735": [80, 360, 1090, 3500, 6870, 10970, 21350, 34510, 50280],
    "b738": [100, 490, 1490, 4900, 9680, 15520, 30340, 49160, 71760],
    "b752": [110, 560, 1740, 5820, 11570, 18620, 36540, 59340, 86740],
    "b763": [140, 710, 2190, 7280, 14430, 23200, 45460, 73780, 107800],
    "b744": [200, 1080, 3420, 11500, 22930, 36960, 72650, 118100, 172760],
    "a319": [80, 400, 1230, 4040, 7980, 12800, 25030, 40550, 59200],
    "a320": [90, 450, 1390, 4590, 9100, 14620, 28620, 46430, 67820],
    "a321": [100, 520, 1630, 5470, 10890, 17530, 34440, 55970, 81850],
    "at43": [40, 180, 490, 1490, 2850, 4490, 8850, 13730, 19880],
    "at72": [50, 230, 650, 2030, 3920, 6230, 12020, 19330, 28080],
    "dh8d": [50, 240, 700, 2190, 4250, 6760, 13080, 21060, 30620],
    "e190": [70, 300, 900, 2870, 5620, 8960, 17410, 28110, 40930],
    "a332": [150, 780, 2430, 8110, 16100, 25900, 50810, 82500, 12580],

    "a318": [80, 400, 1230, 4040, 7980, 12800, 25030, 40550, 59200],
    "a343": [150, 780, 2430, 8110, 16100, 25900, 50810, 82500, 12580],
    "a388": [200, 1080, 3420, 11500, 22930, 36960, 72650, 118100, 172760],
    "at45": [40, 180, 490, 1490, 2850, 4490, 8850, 13730, 19880],
    "e170": [70, 300, 900, 2870, 5620, 8960, 17410, 28110, 40930],
    "e145": [70, 300, 900, 2870, 5620, 8960, 17410, 28110, 40930],
    "rj85": [90, 450, 1390, 4590, 9100, 14620, 28620, 46430, 67820],
    "b772": [150, 780, 2430, 8110, 16100, 25900, 50810, 82500, 12580],
    "b77w": [150, 780, 2430, 8110, 16100, 25900, 50810, 82500, 12580],
    "b788": [150, 780, 2430, 8110, 16100, 25900, 50810, 82500, 12580],
    "crjx": [80, 400, 1230, 4040, 7980, 12800, 25030, 40550, 59200],
    "crj1": [80, 400, 1230, 4040, 7980, 12800, 25030, 40550, 59200],
    "crj7": [80, 400, 1230, 4040, 7980, 12800, 25030, 40550, 59200]
}
